{
  "builders": [
    {
      "boot_command": [
        "<tab> text append net.ifnames=0 biosdevname=0 ks=http://{{ .HTTPIP }}:{{ .HTTPPort }}/ks.cfg<enter><wait>"
      ],
      "boot_wait": "10s",
      "disk_size": 40520,
      "guest_additions_path": "VBoxGuestAdditions_{{.Version}}.iso",
      "guest_os_type": "RedHat_64",
      "http_directory": "http",
      "iso_checksum": "sha256:07b94e6b1a0b0260b94c83d6bb76b26bf7a310dc78d7a9c7432809fb9bc6194a",
      "iso_url": "http://ftp.pbone.net/pub/centos/7/isos/x86_64/CentOS-7-x86_64-Minimal-2009.iso",
      "shutdown_command": "echo '/sbin/halt -h -p' > /tmp/shutdown.sh; echo 'vagrant'|sudo -S sh '/tmp/shutdown.sh'",
      "ssh_password": "vagrant",
      "ssh_port": 22,
      "ssh_timeout": "10000s",
      "ssh_username": "vagrant",
      "type": "virtualbox-iso",
      "format": "ova",
      "virtualbox_version_file": ".vbox_version",
      "vboxmanage": [
        [
          "modifyvm",
          "{{.Name}}",
          "--memory",
          "1024"
        ],
        [
          "modifyvm",
          "{{.Name}}",
          "--cpus",
          "2"
        ]
      ]
    }
  ]

}

